…
# Homework 6 for Data Science Course p8105

## Problem 1

First, we read the data from the local file.

``` r
# in this code chunk, we read the data from local files and display
df_birthweight = 
  read_csv("./problem1_data/birthweight.csv") %>% 
  janitor::clean_names() %>% 
  print()
## # A tibble: 4,342 x 20
##    babysex bhead blength   bwt delwt fincome frace gaweeks malform menarche
##      <dbl> <dbl>   <dbl> <dbl> <dbl>   <dbl> <dbl>   <dbl>   <dbl>    <dbl>
##  1       2    34      51  3629   177      35     1    39.9       0       13
##  2       1    34      48  3062   156      65     2    25.9       0       14
##  3       2    36      50  3345   148      85     1    39.9       0       12
##  4       1    34      52  3062   157      55     1    40         0       14
##  5       2    34      52  3374   156       5     1    41.6       0       13
##  6       1    33      52  3374   129      55     1    40.7       0       12
##  7       2    33      46  2523   126      96     2    40.3       0       14
##  8       2    33      49  2778   140       5     1    37.4       0       12
##  9       1    36      52  3515   146      85     1    40.3       0       11
## 10       1    33      50  3459   169      75     2    40.7       0       12
## # … with 4,332 more rows, and 10 more variables: mheight <dbl>,
## #   momage <dbl>, mrace <dbl>, parity <dbl>, pnumlbw <dbl>, pnumsga <dbl>,
## #   ppbmi <dbl>, ppwt <dbl>, smoken <dbl>, wtgain <dbl>
```
…
#display
df_tidy_birthweight
## # A tibble: 4,342 x 20
##    babysex bhead blength   bwt delwt fincome frace gaweeks malform menarche
##    <fct>   <dbl>   <dbl> <dbl> <dbl>   <dbl> <fct>   <dbl> <fct>      <dbl>
##  1 female     34      51  3629   177      35 White    39.9 absent        13
##  2 male       34      48  3062   156      65 Black    25.9 absent        14
##  3 female     36      50  3345   148      85 White    39.9 absent        12
##  4 male       34      52  3062   157      55 White    40   absent        14
##  5 female     34      52  3374   156       5 White    41.6 absent        13
##  6 male       33      52  3374   129      55 White    40.7 absent        12
##  7 female     33      46  2523   126      96 Black    40.3 absent        14
##  8 female     33      49  2778   140       5 White    37.4 absent        12
##  9 male       36      52  3515   146      85 White    40.3 absent        11
## 10 male       33      50  3459   169      75 Black    40.7 absent        12
## # … with 4,332 more rows, and 10 more variables: mheight <dbl>,
## #   momage <dbl>, mrace <fct>, parity <dbl>, pnumlbw <dbl>, pnumsga <dbl>,
## #   ppbmi <dbl>, ppwt <dbl>, smoken <dbl>, wtgain <dbl>
```
…
# display
cv_df
```

    ## # A tibble: 100 x 9
    ##    train test  .id   lasso_mod main_effect_mod interactions_mod rmse_lasso
    ##    <lis> <lis> <chr> <list>    <list>          <list>                <dbl>
    ##  1 <tib… <tib… 001   <elnet>   <lm>            <lm>                   288.
    ##  2 <tib… <tib… 002   <elnet>   <lm>            <lm>                   275.
    ##  3 <tib… <tib… 003   <elnet>   <lm>            <lm>                   289.
    ##  4 <tib… <tib… 004   <elnet>   <lm>            <lm>                   269.
    ##  5 <tib… <tib… 005   <elnet>   <lm>            <lm>                   280.
    ##  6 <tib… <tib… 006   <elnet>   <lm>            <lm>                   266.
    ##  7 <tib… <tib… 007   <elnet>   <lm>            <lm>                   271.
    ##  8 <tib… <tib… 008   <elnet>   <lm>            <lm>                   267.
    ##  9 <tib… <tib… 009   <elnet>   <lm>            <lm>                   269.
    ## 10 <tib… <tib… 010   <elnet>   <lm>            <lm>                   276.
    ## # … with 90 more rows, and 2 more variables: rmse_main_effect <dbl>,
    ## #   rmse_interactions <dbl>
…
# display 
weather_df
## # A tibble: 365 x 6
##    name           id          date        prcp  tmax  tmin
##    <chr>          <chr>       <date>     <dbl> <dbl> <dbl>
##  1 CentralPark_NY USW00094728 2017-01-01     0   8.9   4.4
##  2 CentralPark_NY USW00094728 2017-01-02    53   5     2.8
##  3 CentralPark_NY USW00094728 2017-01-03   147   6.1   3.9
##  4 CentralPark_NY USW00094728 2017-01-04     0  11.1   1.1
##  5 CentralPark_NY USW00094728 2017-01-05     0   1.1  -2.7
##  6 CentralPark_NY USW00094728 2017-01-06    13   0.6  -3.8
##  7 CentralPark_NY USW00094728 2017-01-07    81  -3.2  -6.6
##  8 CentralPark_NY USW00094728 2017-01-08     0  -3.8  -8.8
##  9 CentralPark_NY USW00094728 2017-01-09     0  -4.9  -9.9
## 10 CentralPark_NY USW00094728 2017-01-10     0   7.8  -6  
## # … with 355 more rows
```
…
# display
bootstrap_samples
## # A tibble: 10,000 x 17
##    .id   term  estimate std.error statistic   p.value r.squared
##    <chr> <chr>    <dbl>     <dbl>     <dbl>     <dbl>     <dbl>
##  1 0001  (Int…     7.95    0.248       32.1 6.43e-108     0.894
##  2 0001  tmin      1.00    0.0182      55.3 7.25e-179     0.894
##  3 0002  (Int…     7.41    0.236       31.5 8.26e-106     0.911
##  4 0002  tmin      1.03    0.0168      61.0 9.20e-193     0.911
##  5 0003  (Int…     7.16    0.226       31.6 3.11e-106     0.911
##  6 0003  tmin      1.05    0.0173      60.8 1.97e-192     0.911
##  7 0004  (Int…     7.43    0.236       31.5 1.02e-105     0.900
##  8 0004  tmin      1.04    0.0182      57.1 2.40e-183     0.900
##  9 0005  (Int…     7.25    0.227       32.0 1.09e-107     0.914
## 10 0005  tmin      1.03    0.0166      62.3 7.54e-196     0.914
## # … with 9,990 more rows, and 10 more variables: adj.r.squared <dbl>,
## #   sigma <dbl>, statistic1 <dbl>, p.value1 <dbl>, df <int>, logLik <dbl>,
## #   AIC <dbl>, BIC <dbl>, deviance <dbl>, df.residual <int>
```
…
